{
    "type": "application",
    "source-directories": [
        "src"
    ],
    "elm-version": "0.19.1",
    "dependencies": {
        "direct": {
            "PanagiotisGeorgiadis/elm-datetime": "1.2.0",
            "bartavelle/json-helpers": "2.0.2",
            "elm/browser": "1.0.1",
            "elm/bytes": "1.0.8",
            "elm/core": "1.0.2",
            "elm/file": "1.0.5",
            "elm/html": "1.0.0",
            "elm/http": "2.0.0",
            "elm/json": "1.1.3",
            "elm/parser": "1.1.0",
            "elm/random": "1.0.0",
            "elm/svg": "1.0.1",
            "elm/time": "1.0.0",
            "elm/url": "1.0.0",
            "elm-community/list-extra": "8.2.2",
            "elm-community/maybe-extra": "5.0.0",
            "gingko/time-distance": "2.1.1",
            "hecrj/composable-form": "6.0.1",
            "pablohirafuji/elm-markdown": "2.0.5",
            "rundis/elm-bootstrap": "5.2.0"
        },
        "indirect": {
            "avh4/elm-color": "1.0.0",
            "elm/regex": "1.0.0",
            "elm/virtual-dom": "1.0.0"
        }
    },
    "test-dependencies": {
        "direct": {},
        "indirect": {
            "Skinney/murmur3": "2.0.8"
        }
    }
}
